PRO_DATE,WI,HOURLY,HOURLY_TYPE,QTY,TYPE,DEF_NAME,PIC,DATE_INPUT
20170106,17010601,3,0,2,D1,DEF 1,,20170106
20170106,17010601,4,0,1,D2,DEF 2,,20170106
20170106,17010601,4,30,2,D2,DEF 2,,20170106
20170106,17010603,4,0,2,,DEF 1,,20170106
