-- Merging decision tree log ---
manifest
ADDED from C:\Users\RYUU\WORK\GENU_TABLET\SCAN_KOLONBD\app\src\main\AndroidManifest.xml:2:1-125:12
	package
		ADDED from C:\Users\RYUU\WORK\GENU_TABLET\SCAN_KOLONBD\app\src\main\AndroidManifest.xml:4:5-32
		INJECTED from C:\Users\RYUU\WORK\GENU_TABLET\SCAN_KOLONBD\app\src\main\AndroidManifest.xml
		INJECTED from C:\Users\RYUU\WORK\GENU_TABLET\SCAN_KOLONBD\app\src\main\AndroidManifest.xml
	android:versionName
		ADDED from C:\Users\RYUU\WORK\GENU_TABLET\SCAN_KOLONBD\app\src\main\AndroidManifest.xml:7:5-46
		INJECTED from C:\Users\RYUU\WORK\GENU_TABLET\SCAN_KOLONBD\app\src\main\AndroidManifest.xml
		INJECTED from C:\Users\RYUU\WORK\GENU_TABLET\SCAN_KOLONBD\app\src\main\AndroidManifest.xml
	android:versionCode
		ADDED from C:\Users\RYUU\WORK\GENU_TABLET\SCAN_KOLONBD\app\src\main\AndroidManifest.xml:6:5-29
		INJECTED from C:\Users\RYUU\WORK\GENU_TABLET\SCAN_KOLONBD\app\src\main\AndroidManifest.xml
		INJECTED from C:\Users\RYUU\WORK\GENU_TABLET\SCAN_KOLONBD\app\src\main\AndroidManifest.xml
	xmlns:android
		ADDED from C:\Users\RYUU\WORK\GENU_TABLET\SCAN_KOLONBD\app\src\main\AndroidManifest.xml:2:11-69
	android:installLocation
		ADDED from C:\Users\RYUU\WORK\GENU_TABLET\SCAN_KOLONBD\app\src\main\AndroidManifest.xml:5:5-43
	android:name
		ADDED from C:\Users\RYUU\WORK\GENU_TABLET\SCAN_KOLONBD\app\src\main\AndroidManifest.xml:3:5-38
uses-sdk
ADDED from C:\Users\RYUU\WORK\GENU_TABLET\SCAN_KOLONBD\app\src\main\AndroidManifest.xml:9:5-11:41
MERGED from [com.android.support:design:25.1.0] C:\Users\RYUU\.android\build-cache\06c57e5fd80e88cc527cabba9cdf89fd14c6d182\output\AndroidManifest.xml:21:5-23:62
MERGED from [com.android.support:appcompat-v7:25.1.0] C:\Users\RYUU\.android\build-cache\b2f9fca9563e4ab3859b3c58688be66330bfc816\output\AndroidManifest.xml:21:5-23:78
MERGED from [com.android.support:animated-vector-drawable:25.1.0] C:\Users\RYUU\.android\build-cache\f0d44af9c764ee61f5558e56ec75b2c609b78f9f\output\AndroidManifest.xml:20:5-44
MERGED from [com.android.support:support-vector-drawable:25.1.0] C:\Users\RYUU\.android\build-cache\2ad338172c01da289371e3d109d3a4ca5a756473\output\AndroidManifest.xml:21:5-43
MERGED from [com.android.support:recyclerview-v7:25.1.0] C:\Users\RYUU\.android\build-cache\ba5ec2251da51cff07a2feeb16832c7f7da48f36\output\AndroidManifest.xml:20:5-43
MERGED from [com.android.support:transition:25.1.0] C:\Users\RYUU\.android\build-cache\39b6c835cc10f57e6ecc7d627e47e07a694cdfc9\output\AndroidManifest.xml:20:5-44
MERGED from [com.android.support:support-v4:25.1.0] C:\Users\RYUU\.android\build-cache\f0333cb8fda30c4802c86e3e2ab1bd3e2411689a\output\AndroidManifest.xml:21:5-23:54
MERGED from [com.android.support:support-fragment:25.1.0] C:\Users\RYUU\.android\build-cache\7795a5ffcaa8ad5ef88fe088cd390d00b66ed5f0\output\AndroidManifest.xml:21:5-23:60
MERGED from [com.android.support:support-media-compat:25.1.0] C:\Users\RYUU\.android\build-cache\d2762e1182ca9fba4fc07b13d31a6fa455bd62e1\output\AndroidManifest.xml:21:5-23:63
MERGED from [com.android.support:support-core-ui:25.1.0] C:\Users\RYUU\.android\build-cache\95c0bb00fe9b5c55c049cfd0fcdde58f04056f54\output\AndroidManifest.xml:21:5-23:58
MERGED from [com.android.support:support-core-utils:25.1.0] C:\Users\RYUU\.android\build-cache\0f2a41826e0d1686cfa7c110dfed0597af8f7afb\output\AndroidManifest.xml:21:5-23:61
MERGED from [com.android.support:support-compat:25.1.0] C:\Users\RYUU\.android\build-cache\f2df038e2e20502fffa2d9080687d956d33c4723\output\AndroidManifest.xml:21:5-23:58
	tools:overrideLibrary
		ADDED from [com.android.support:design:25.1.0] C:\Users\RYUU\.android\build-cache\06c57e5fd80e88cc527cabba9cdf89fd14c6d182\output\AndroidManifest.xml:23:9-59
	android:targetSdkVersion
		ADDED from C:\Users\RYUU\WORK\GENU_TABLET\SCAN_KOLONBD\app\src\main\AndroidManifest.xml:11:9-38
		INJECTED from C:\Users\RYUU\WORK\GENU_TABLET\SCAN_KOLONBD\app\src\main\AndroidManifest.xml
		INJECTED from C:\Users\RYUU\WORK\GENU_TABLET\SCAN_KOLONBD\app\src\main\AndroidManifest.xml
	android:minSdkVersion
		ADDED from C:\Users\RYUU\WORK\GENU_TABLET\SCAN_KOLONBD\app\src\main\AndroidManifest.xml:10:9-35
		INJECTED from C:\Users\RYUU\WORK\GENU_TABLET\SCAN_KOLONBD\app\src\main\AndroidManifest.xml
		INJECTED from C:\Users\RYUU\WORK\GENU_TABLET\SCAN_KOLONBD\app\src\main\AndroidManifest.xml
uses-feature#android.hardware.camera
ADDED from C:\Users\RYUU\WORK\GENU_TABLET\SCAN_KOLONBD\app\src\main\AndroidManifest.xml:14:5-16:35
	android:required
		ADDED from C:\Users\RYUU\WORK\GENU_TABLET\SCAN_KOLONBD\app\src\main\AndroidManifest.xml:16:9-32
	android:name
		ADDED from C:\Users\RYUU\WORK\GENU_TABLET\SCAN_KOLONBD\app\src\main\AndroidManifest.xml:15:9-47
uses-permission#android.permission.BLUETOOTH
ADDED from C:\Users\RYUU\WORK\GENU_TABLET\SCAN_KOLONBD\app\src\main\AndroidManifest.xml:19:5-68
	android:name
		ADDED from C:\Users\RYUU\WORK\GENU_TABLET\SCAN_KOLONBD\app\src\main\AndroidManifest.xml:19:22-65
uses-permission#android.permission.BLUETOOTH_ADMIN
ADDED from C:\Users\RYUU\WORK\GENU_TABLET\SCAN_KOLONBD\app\src\main\AndroidManifest.xml:22:5-74
	android:name
		ADDED from C:\Users\RYUU\WORK\GENU_TABLET\SCAN_KOLONBD\app\src\main\AndroidManifest.xml:22:22-71
uses-permission#android.permission.WRITE_EXTERNAL_STORAGE
ADDED from C:\Users\RYUU\WORK\GENU_TABLET\SCAN_KOLONBD\app\src\main\AndroidManifest.xml:23:5-81
	android:name
		ADDED from C:\Users\RYUU\WORK\GENU_TABLET\SCAN_KOLONBD\app\src\main\AndroidManifest.xml:23:22-78
uses-permission#android.permission.READ_EXTERNAL_STORAGE
ADDED from C:\Users\RYUU\WORK\GENU_TABLET\SCAN_KOLONBD\app\src\main\AndroidManifest.xml:24:5-80
	android:name
		ADDED from C:\Users\RYUU\WORK\GENU_TABLET\SCAN_KOLONBD\app\src\main\AndroidManifest.xml:24:22-77
uses-permission#android.permission.INTERNET
ADDED from C:\Users\RYUU\WORK\GENU_TABLET\SCAN_KOLONBD\app\src\main\AndroidManifest.xml:26:5-67
	android:name
		ADDED from C:\Users\RYUU\WORK\GENU_TABLET\SCAN_KOLONBD\app\src\main\AndroidManifest.xml:26:22-64
uses-permission#android.permission.ACCESS_WIFI_STATE
ADDED from C:\Users\RYUU\WORK\GENU_TABLET\SCAN_KOLONBD\app\src\main\AndroidManifest.xml:28:5-76
	android:name
		ADDED from C:\Users\RYUU\WORK\GENU_TABLET\SCAN_KOLONBD\app\src\main\AndroidManifest.xml:28:22-73
uses-permission#android.permission.ACCESS_NETWORK_STATE
ADDED from C:\Users\RYUU\WORK\GENU_TABLET\SCAN_KOLONBD\app\src\main\AndroidManifest.xml:29:5-79
	android:name
		ADDED from C:\Users\RYUU\WORK\GENU_TABLET\SCAN_KOLONBD\app\src\main\AndroidManifest.xml:29:22-76
uses-permission#android.permission.READ_CALENDAR
ADDED from C:\Users\RYUU\WORK\GENU_TABLET\SCAN_KOLONBD\app\src\main\AndroidManifest.xml:31:5-72
	android:name
		ADDED from C:\Users\RYUU\WORK\GENU_TABLET\SCAN_KOLONBD\app\src\main\AndroidManifest.xml:31:22-69
uses-permission#android.permission.WRITE_CALENDAR
ADDED from C:\Users\RYUU\WORK\GENU_TABLET\SCAN_KOLONBD\app\src\main\AndroidManifest.xml:32:5-73
	android:name
		ADDED from C:\Users\RYUU\WORK\GENU_TABLET\SCAN_KOLONBD\app\src\main\AndroidManifest.xml:32:22-70
uses-permission#android.permission.READ_PHONE_STATE
ADDED from C:\Users\RYUU\WORK\GENU_TABLET\SCAN_KOLONBD\app\src\main\AndroidManifest.xml:33:5-75
	android:name
		ADDED from C:\Users\RYUU\WORK\GENU_TABLET\SCAN_KOLONBD\app\src\main\AndroidManifest.xml:33:22-72
application
ADDED from C:\Users\RYUU\WORK\GENU_TABLET\SCAN_KOLONBD\app\src\main\AndroidManifest.xml:35:5-123:19
MERGED from [com.android.support:design:25.1.0] C:\Users\RYUU\.android\build-cache\06c57e5fd80e88cc527cabba9cdf89fd14c6d182\output\AndroidManifest.xml:25:5-20
MERGED from [com.android.support:appcompat-v7:25.1.0] C:\Users\RYUU\.android\build-cache\b2f9fca9563e4ab3859b3c58688be66330bfc816\output\AndroidManifest.xml:25:5-20
MERGED from [com.android.support:animated-vector-drawable:25.1.0] C:\Users\RYUU\.android\build-cache\f0d44af9c764ee61f5558e56ec75b2c609b78f9f\output\AndroidManifest.xml:22:5-20
MERGED from [com.android.support:support-vector-drawable:25.1.0] C:\Users\RYUU\.android\build-cache\2ad338172c01da289371e3d109d3a4ca5a756473\output\AndroidManifest.xml:23:5-20
MERGED from [com.android.support:transition:25.1.0] C:\Users\RYUU\.android\build-cache\39b6c835cc10f57e6ecc7d627e47e07a694cdfc9\output\AndroidManifest.xml:22:5-20
MERGED from [com.android.support:support-v4:25.1.0] C:\Users\RYUU\.android\build-cache\f0333cb8fda30c4802c86e3e2ab1bd3e2411689a\output\AndroidManifest.xml:25:5-20
MERGED from [com.android.support:support-fragment:25.1.0] C:\Users\RYUU\.android\build-cache\7795a5ffcaa8ad5ef88fe088cd390d00b66ed5f0\output\AndroidManifest.xml:25:5-20
MERGED from [com.android.support:support-media-compat:25.1.0] C:\Users\RYUU\.android\build-cache\d2762e1182ca9fba4fc07b13d31a6fa455bd62e1\output\AndroidManifest.xml:25:5-20
MERGED from [com.android.support:support-core-ui:25.1.0] C:\Users\RYUU\.android\build-cache\95c0bb00fe9b5c55c049cfd0fcdde58f04056f54\output\AndroidManifest.xml:25:5-20
MERGED from [com.android.support:support-core-utils:25.1.0] C:\Users\RYUU\.android\build-cache\0f2a41826e0d1686cfa7c110dfed0597af8f7afb\output\AndroidManifest.xml:25:5-20
MERGED from [com.android.support:support-compat:25.1.0] C:\Users\RYUU\.android\build-cache\f2df038e2e20502fffa2d9080687d956d33c4723\output\AndroidManifest.xml:25:5-20
	android:label
		ADDED from C:\Users\RYUU\WORK\GENU_TABLET\SCAN_KOLONBD\app\src\main\AndroidManifest.xml:38:9-41
	android:allowBackup
		ADDED from C:\Users\RYUU\WORK\GENU_TABLET\SCAN_KOLONBD\app\src\main\AndroidManifest.xml:36:9-35
	android:icon
		ADDED from C:\Users\RYUU\WORK\GENU_TABLET\SCAN_KOLONBD\app\src\main\AndroidManifest.xml:37:9-45
	android:theme
		ADDED from C:\Users\RYUU\WORK\GENU_TABLET\SCAN_KOLONBD\app\src\main\AndroidManifest.xml:39:9-40
activity#gw.genumobile.com.views.MainActivity
ADDED from C:\Users\RYUU\WORK\GENU_TABLET\SCAN_KOLONBD\app\src\main\AndroidManifest.xml:40:9-50:20
	android:screenOrientation
		ADDED from C:\Users\RYUU\WORK\GENU_TABLET\SCAN_KOLONBD\app\src\main\AndroidManifest.xml:43:13-49
	android:label
		ADDED from C:\Users\RYUU\WORK\GENU_TABLET\SCAN_KOLONBD\app\src\main\AndroidManifest.xml:42:13-45
	android:theme
		ADDED from C:\Users\RYUU\WORK\GENU_TABLET\SCAN_KOLONBD\app\src\main\AndroidManifest.xml:44:13-44
	android:name
		ADDED from C:\Users\RYUU\WORK\GENU_TABLET\SCAN_KOLONBD\app\src\main\AndroidManifest.xml:41:13-47
intent-filter#android.intent.action.MAIN+android.intent.category.LAUNCHER
ADDED from C:\Users\RYUU\WORK\GENU_TABLET\SCAN_KOLONBD\app\src\main\AndroidManifest.xml:45:13-49:29
action#android.intent.action.MAIN
ADDED from C:\Users\RYUU\WORK\GENU_TABLET\SCAN_KOLONBD\app\src\main\AndroidManifest.xml:46:17-69
	android:name
		ADDED from C:\Users\RYUU\WORK\GENU_TABLET\SCAN_KOLONBD\app\src\main\AndroidManifest.xml:46:25-66
category#android.intent.category.LAUNCHER
ADDED from C:\Users\RYUU\WORK\GENU_TABLET\SCAN_KOLONBD\app\src\main\AndroidManifest.xml:48:17-77
	android:name
		ADDED from C:\Users\RYUU\WORK\GENU_TABLET\SCAN_KOLONBD\app\src\main\AndroidManifest.xml:48:27-74
activity#gw.genumobile.com.views.inventory.Incoming
ADDED from C:\Users\RYUU\WORK\GENU_TABLET\SCAN_KOLONBD\app\src\main\AndroidManifest.xml:51:9-53:63
	android:label
		ADDED from C:\Users\RYUU\WORK\GENU_TABLET\SCAN_KOLONBD\app\src\main\AndroidManifest.xml:53:13-60
	android:name
		ADDED from C:\Users\RYUU\WORK\GENU_TABLET\SCAN_KOLONBD\app\src\main\AndroidManifest.xml:52:13-53
activity#gw.genumobile.com.views.inventory.Outgoing
ADDED from C:\Users\RYUU\WORK\GENU_TABLET\SCAN_KOLONBD\app\src\main\AndroidManifest.xml:54:9-56:63
	android:label
		ADDED from C:\Users\RYUU\WORK\GENU_TABLET\SCAN_KOLONBD\app\src\main\AndroidManifest.xml:56:13-60
	android:name
		ADDED from C:\Users\RYUU\WORK\GENU_TABLET\SCAN_KOLONBD\app\src\main\AndroidManifest.xml:55:13-53
activity#gw.genumobile.com.views.inventory.Goodsdelivery
ADDED from C:\Users\RYUU\WORK\GENU_TABLET\SCAN_KOLONBD\app\src\main\AndroidManifest.xml:57:9-59:68
	android:label
		ADDED from C:\Users\RYUU\WORK\GENU_TABLET\SCAN_KOLONBD\app\src\main\AndroidManifest.xml:59:13-65
	android:name
		ADDED from C:\Users\RYUU\WORK\GENU_TABLET\SCAN_KOLONBD\app\src\main\AndroidManifest.xml:58:13-58
activity#gw.genumobile.com.views.inventory.Download
ADDED from C:\Users\RYUU\WORK\GENU_TABLET\SCAN_KOLONBD\app\src\main\AndroidManifest.xml:60:9-62:63
	android:label
		ADDED from C:\Users\RYUU\WORK\GENU_TABLET\SCAN_KOLONBD\app\src\main\AndroidManifest.xml:62:13-60
	android:name
		ADDED from C:\Users\RYUU\WORK\GENU_TABLET\SCAN_KOLONBD\app\src\main\AndroidManifest.xml:61:13-53
activity#gw.genumobile.com.interfaces.GridListView
ADDED from C:\Users\RYUU\WORK\GENU_TABLET\SCAN_KOLONBD\app\src\main\AndroidManifest.xml:63:9-65:69
	android:label
		ADDED from C:\Users\RYUU\WORK\GENU_TABLET\SCAN_KOLONBD\app\src\main\AndroidManifest.xml:65:13-66
	android:name
		ADDED from C:\Users\RYUU\WORK\GENU_TABLET\SCAN_KOLONBD\app\src\main\AndroidManifest.xml:64:13-52
activity#gw.genumobile.com.interfaces.GridListViewPreparation
ADDED from C:\Users\RYUU\WORK\GENU_TABLET\SCAN_KOLONBD\app\src\main\AndroidManifest.xml:66:9-68:78
	android:label
		ADDED from C:\Users\RYUU\WORK\GENU_TABLET\SCAN_KOLONBD\app\src\main\AndroidManifest.xml:68:13-75
	android:name
		ADDED from C:\Users\RYUU\WORK\GENU_TABLET\SCAN_KOLONBD\app\src\main\AndroidManifest.xml:67:13-63
activity#gw.genumobile.com.interfaces.GridListViewMid
ADDED from C:\Users\RYUU\WORK\GENU_TABLET\SCAN_KOLONBD\app\src\main\AndroidManifest.xml:69:12-71:73
	android:label
		ADDED from C:\Users\RYUU\WORK\GENU_TABLET\SCAN_KOLONBD\app\src\main\AndroidManifest.xml:71:13-70
	android:name
		ADDED from C:\Users\RYUU\WORK\GENU_TABLET\SCAN_KOLONBD\app\src\main\AndroidManifest.xml:70:13-55
activity#gw.genumobile.com.interfaces.ItemInquiry
ADDED from C:\Users\RYUU\WORK\GENU_TABLET\SCAN_KOLONBD\app\src\main\AndroidManifest.xml:72:9-74:67
	android:label
		ADDED from C:\Users\RYUU\WORK\GENU_TABLET\SCAN_KOLONBD\app\src\main\AndroidManifest.xml:74:13-64
	android:name
		ADDED from C:\Users\RYUU\WORK\GENU_TABLET\SCAN_KOLONBD\app\src\main\AndroidManifest.xml:73:13-51
activity#gw.genumobile.com.interfaces.ItemInput
ADDED from C:\Users\RYUU\WORK\GENU_TABLET\SCAN_KOLONBD\app\src\main\AndroidManifest.xml:75:9-77:65
	android:label
		ADDED from C:\Users\RYUU\WORK\GENU_TABLET\SCAN_KOLONBD\app\src\main\AndroidManifest.xml:77:13-62
	android:name
		ADDED from C:\Users\RYUU\WORK\GENU_TABLET\SCAN_KOLONBD\app\src\main\AndroidManifest.xml:76:13-49
activity#gw.genumobile.com.views.gwcore.AppConfig
ADDED from C:\Users\RYUU\WORK\GENU_TABLET\SCAN_KOLONBD\app\src\main\AndroidManifest.xml:78:9-60
	android:name
		ADDED from C:\Users\RYUU\WORK\GENU_TABLET\SCAN_KOLONBD\app\src\main\AndroidManifest.xml:78:19-57
activity#gw.genumobile.com.interfaces.ListViewMultipleSelectionActivity
ADDED from C:\Users\RYUU\WORK\GENU_TABLET\SCAN_KOLONBD\app\src\main\AndroidManifest.xml:79:9-82
	android:name
		ADDED from C:\Users\RYUU\WORK\GENU_TABLET\SCAN_KOLONBD\app\src\main\AndroidManifest.xml:79:19-79
activity#gw.genumobile.com.views.gwcore.BaseGwActive
ADDED from C:\Users\RYUU\WORK\GENU_TABLET\SCAN_KOLONBD\app\src\main\AndroidManifest.xml:80:9-63
	android:name
		ADDED from C:\Users\RYUU\WORK\GENU_TABLET\SCAN_KOLONBD\app\src\main\AndroidManifest.xml:80:19-60
activity#gw.genumobile.com.views.mold.Mold_Status
ADDED from C:\Users\RYUU\WORK\GENU_TABLET\SCAN_KOLONBD\app\src\main\AndroidManifest.xml:81:9-83:66
	android:label
		ADDED from C:\Users\RYUU\WORK\GENU_TABLET\SCAN_KOLONBD\app\src\main\AndroidManifest.xml:83:13-63
	android:name
		ADDED from C:\Users\RYUU\WORK\GENU_TABLET\SCAN_KOLONBD\app\src\main\AndroidManifest.xml:82:13-51
activity#gw.genumobile.com.views.mold.Mold_Monitoring_Pie_Chart
ADDED from C:\Users\RYUU\WORK\GENU_TABLET\SCAN_KOLONBD\app\src\main\AndroidManifest.xml:84:9-86:71
	android:label
		ADDED from C:\Users\RYUU\WORK\GENU_TABLET\SCAN_KOLONBD\app\src\main\AndroidManifest.xml:86:13-68
	android:name
		ADDED from C:\Users\RYUU\WORK\GENU_TABLET\SCAN_KOLONBD\app\src\main\AndroidManifest.xml:85:13-65
activity#gw.genumobile.com.views.qc_management.Popup_QC_Management_Inspector
ADDED from C:\Users\RYUU\WORK\GENU_TABLET\SCAN_KOLONBD\app\src\main\AndroidManifest.xml:87:9-90:63
	android:windowSoftInputMode
		ADDED from C:\Users\RYUU\WORK\GENU_TABLET\SCAN_KOLONBD\app\src\main\AndroidManifest.xml:90:13-60
	android:theme
		ADDED from C:\Users\RYUU\WORK\GENU_TABLET\SCAN_KOLONBD\app\src\main\AndroidManifest.xml:89:13-73
	android:name
		ADDED from C:\Users\RYUU\WORK\GENU_TABLET\SCAN_KOLONBD\app\src\main\AndroidManifest.xml:88:13-78
activity#gw.genumobile.com.views.qc_management.Popup_QC_Management_Checker
ADDED from C:\Users\RYUU\WORK\GENU_TABLET\SCAN_KOLONBD\app\src\main\AndroidManifest.xml:91:9-94:63
	android:windowSoftInputMode
		ADDED from C:\Users\RYUU\WORK\GENU_TABLET\SCAN_KOLONBD\app\src\main\AndroidManifest.xml:94:13-60
	android:theme
		ADDED from C:\Users\RYUU\WORK\GENU_TABLET\SCAN_KOLONBD\app\src\main\AndroidManifest.xml:93:13-73
	android:name
		ADDED from C:\Users\RYUU\WORK\GENU_TABLET\SCAN_KOLONBD\app\src\main\AndroidManifest.xml:92:13-76
activity#gw.genumobile.com.views.qc_management.Popup_QC_Management_Approve
ADDED from C:\Users\RYUU\WORK\GENU_TABLET\SCAN_KOLONBD\app\src\main\AndroidManifest.xml:95:9-98:63
	android:windowSoftInputMode
		ADDED from C:\Users\RYUU\WORK\GENU_TABLET\SCAN_KOLONBD\app\src\main\AndroidManifest.xml:98:13-60
	android:theme
		ADDED from C:\Users\RYUU\WORK\GENU_TABLET\SCAN_KOLONBD\app\src\main\AndroidManifest.xml:97:13-73
	android:name
		ADDED from C:\Users\RYUU\WORK\GENU_TABLET\SCAN_KOLONBD\app\src\main\AndroidManifest.xml:96:13-76
activity#gw.genumobile.com.views.label.Label_S130
ADDED from C:\Users\RYUU\WORK\GENU_TABLET\SCAN_KOLONBD\app\src\main\AndroidManifest.xml:99:9-102:76
	android:label
		ADDED from C:\Users\RYUU\WORK\GENU_TABLET\SCAN_KOLONBD\app\src\main\AndroidManifest.xml:101:13-45
	android:theme
		ADDED from C:\Users\RYUU\WORK\GENU_TABLET\SCAN_KOLONBD\app\src\main\AndroidManifest.xml:102:13-73
	android:name
		ADDED from C:\Users\RYUU\WORK\GENU_TABLET\SCAN_KOLONBD\app\src\main\AndroidManifest.xml:100:13-51
activity#gw.genumobile.com.views.productresult.EditCapture
ADDED from C:\Users\RYUU\WORK\GENU_TABLET\SCAN_KOLONBD\app\src\main\AndroidManifest.xml:103:9-106:59
	android:label
		ADDED from C:\Users\RYUU\WORK\GENU_TABLET\SCAN_KOLONBD\app\src\main\AndroidManifest.xml:105:13-64
	android:theme
		ADDED from C:\Users\RYUU\WORK\GENU_TABLET\SCAN_KOLONBD\app\src\main\AndroidManifest.xml:106:13-56
	android:name
		ADDED from C:\Users\RYUU\WORK\GENU_TABLET\SCAN_KOLONBD\app\src\main\AndroidManifest.xml:104:13-60
activity#gw.genumobile.com.views.gwMainActivity
ADDED from C:\Users\RYUU\WORK\GENU_TABLET\SCAN_KOLONBD\app\src\main\AndroidManifest.xml:107:9-110:58
	android:configChanges
		ADDED from C:\Users\RYUU\WORK\GENU_TABLET\SCAN_KOLONBD\app\src\main\AndroidManifest.xml:109:13-74
	android:theme
		ADDED from C:\Users\RYUU\WORK\GENU_TABLET\SCAN_KOLONBD\app\src\main\AndroidManifest.xml:110:13-55
	android:name
		ADDED from C:\Users\RYUU\WORK\GENU_TABLET\SCAN_KOLONBD\app\src\main\AndroidManifest.xml:108:13-49
provider#android.support.v4.content.FileProvider
ADDED from C:\Users\RYUU\WORK\GENU_TABLET\SCAN_KOLONBD\app\src\main\AndroidManifest.xml:112:9-120:20
	android:authorities
		ADDED from C:\Users\RYUU\WORK\GENU_TABLET\SCAN_KOLONBD\app\src\main\AndroidManifest.xml:114:13-60
		INJECTED from C:\Users\RYUU\WORK\GENU_TABLET\SCAN_KOLONBD\app\src\main\AndroidManifest.xml
	android:grantUriPermissions
		ADDED from C:\Users\RYUU\WORK\GENU_TABLET\SCAN_KOLONBD\app\src\main\AndroidManifest.xml:116:13-47
	android:exported
		ADDED from C:\Users\RYUU\WORK\GENU_TABLET\SCAN_KOLONBD\app\src\main\AndroidManifest.xml:115:13-37
	android:name
		ADDED from C:\Users\RYUU\WORK\GENU_TABLET\SCAN_KOLONBD\app\src\main\AndroidManifest.xml:113:13-67
meta-data#android.support.FILE_PROVIDER_PATHS
ADDED from C:\Users\RYUU\WORK\GENU_TABLET\SCAN_KOLONBD\app\src\main\AndroidManifest.xml:117:13-119:58
	android:resource
		ADDED from C:\Users\RYUU\WORK\GENU_TABLET\SCAN_KOLONBD\app\src\main\AndroidManifest.xml:119:17-55
	android:name
		ADDED from C:\Users\RYUU\WORK\GENU_TABLET\SCAN_KOLONBD\app\src\main\AndroidManifest.xml:118:17-67
